Data Management – Module 6: Introduction to Data Processing & Programming in R
…
sleepdata_new <- sleepdata[!which, ]

and the second approach uses the row numbers directly (you would need to inquire about, or calculate the row numbers)

sleepdata_new <- sleepdata[-c(16, 32, 38), ]

Note that the numbered option requires less code, but the named option has a much lower probability for error. As the data set might change, or might get sorted differently, the second option may not be valid anymore.

The third approach uses function filter() from package dplyr:

library(dplyr) # Data Manipulation
dplyr::filter(sleepdata, !sleepdata$species %in% exclude) 

# A tibble: 59 × 11
   species             bw    brw   sws    ps    ts   mls    gt    pi   sei   odi
   <fct>            <dbl>  <dbl> <dbl> <dbl> <dbl> <dbl> <dbl> <int> <int> <int>
 1 African eleph… 6.65e+3 5712    NA    NA     3.3  38.6   645     3     5     3
 2 African giant… 1   e+0    6.6   6.3   2     8.3   4.5    42     3     1     3
 3 Arctic Fox     3.38e+0   44.5  NA    NA    12.5  14      60     1     1     1
 4 Arctic ground… 9.2 e-1    5.7  NA    NA    16.5  NA      25     5     2     3
 5 Asian elephant 2.55e+3 4603     2.1   1.8   3.9  69     624     3     5     4
 6 Baboon         1.06e+1  180.    9.1   0.7   9.8  27     180     4     4     4
 7 Big brown bat  2.3 e-2    0.3  15.8   3.9  19.7  19      35     1     1     1
 8 Brazilian tap… 1.6 e+2  169     5.2   1     6.2  30.4   392     4     5     4
 9 Cat            3.3 e+0   25.6  10.9   3.6  14.5  28      63     1     2     1
10 Chimpanzee     5.22e+1  440     8.3   1.4   9.7  50     230     1     1     1
# ℹ 49 more rows
…
