Statistische Analyse – Module 6: Introduction to Data Processing & Programming in R
…
ℹ Use `spec()` to retrieve the full column specification for this data.
ℹ Specify the column types or set `show_col_types = FALSE` to quiet this message.

Exercise 7: Inspect the titanic data set by calling titanic in the console and with functions summary(), str() and glimpse.

titanic will print the data set in the console:

Code

titanic

# A tibble: 887 × 8
   Survived Pclass Name                       Sex     Age Siblings/Spouses Abo…¹
      <dbl>  <dbl> <chr>                      <chr> <dbl>                  <dbl>
 1        0      3 Mr. Owen Harris Braund     male     22                      1
 2        1      1 Mrs. John Bradley (Floren… fema…    38                      1
 3        1      3 Miss. Laina Heikkinen      fema…    26                      0
 4        1      1 Mrs. Jacques Heath (Lily … fema…    35                      1
 5        0      3 Mr. William Henry Allen    male     35                      0
 6        0      3 Mr. James Moran            male     27                      0
 7        0      1 Mr. Timothy J McCarthy     male     54                      0
 8        0      3 Master. Gosta Leonard Pal… male      2                      3
 9        1      3 Mrs. Oscar W (Elisabeth V… fema…    27                      0
10        1      2 Mrs. Nicholas (Adele Ache… fema…    14                      1
# ℹ 877 more rows
# ℹ abbreviated name: ¹​`Siblings/Spouses Aboard`
# ℹ 2 more variables: `Parents/Children Aboard` <dbl>, Fare <dbl>
…
