Data Manipulatie – Module 6: Introduction to Data Processing & Programming in R
…
Selecting columns with dplyr::select()

Select columns by name and save under a different name

Use dplyr::select() to select two variables from msleep: the variables name and sleep_total.

Code

dplyr::select(msleep, name, sleep_total)

# A tibble: 83 × 2
   name                       sleep_total
   <chr>                            <dbl>
 1 Cheetah                           12.1
 2 Owl monkey                        17  
 3 Mountain beaver                   14.4
 4 Greater short-tailed shrew        14.9
 5 Cow                                4  
 6 Three-toed sloth                  14.4
 7 Northern fur seal                  8.7
 8 Vesper mouse                       7  
 9 Dog                               10.1
10 Roe deer                           3  
# ℹ 73 more rows
…
